<?xml version="1.0" encoding="UTF-8" standalone="no"?>
<!-- Created with Inkscape (http://www.inkscape.org/) -->

<svg
   width="146"
   height="108"
   viewBox="0 0 38.629165 28.575"
   version="1.1"
   id="svg5"
   inkscape:version="1.2 (56b05e47e7, 2022-06-09, custom)"
   sodipodi:docname="cupboard.svg"
   xmlns:inkscape="http://www.inkscape.org/namespaces/inkscape"
   xmlns:sodipodi="http://sodipodi.sourceforge.net/DTD/sodipodi-0.dtd"
   xmlns="http://www.w3.org/2000/svg"
   xmlns:svg="http://www.w3.org/2000/svg">
  <sodipodi:namedview
     id="namedview7"
     pagecolor="#ffffff"
     bordercolor="#000000"
     borderopacity="0.25"
     inkscape:showpageshadow="2"
     inkscape:pageopacity="0.0"
     inkscape:pagecheckerboard="0"
     inkscape:deskcolor="#d1d1d1"
     inkscape:document-units="mm"
     showgrid="false"
     inkscape:zoom="1.8127874"
     inkscape:cx="-2.7581834"
     inkscape:cy="10.481097"
     inkscape:window-width="1920"
     inkscape:window-height="935"
     inkscape:window-x="0"
     inkscape:window-y="0"
     inkscape:window-maximized="1"
     inkscape:current-layer="g190" />
  <defs
     id="defs2" />
  <g
     inkscape:label="Layer 1"
     inkscape:groupmode="layer"
     id="layer1">
    <g
       transform="matrix(0.40114171,0,0,0.40114171,12.071832,1.6185613)"
       id="g190">
      <path
         d="m -29.505,40.794362 17.197,-10.865 0.0653,-21.9059991 -17.262,-0.00298 z"
         style="fill:#ffffff"
         id="path174" />
      <path
         id="rect176"
         style="fill:#efefef"
         d="m -12.308,-3.1005373 h 78.007004 l 0,50.1411863 -1.361277,0.760602 -0.394128,6.700861 H -12.308 Z"
         sodipodi:nodetypes="ccccccc" />
      <path
         d="m -12.308,-3.1005371 h 78.007 l -17.197,11.121 h -78.007 l 0.4939,-0.3194 z"
         style="fill:#ffffff;stroke:#403e41;stroke-width:0.786874;stroke-linecap:round;stroke-linejoin:round;stroke-dasharray:none;paint-order:normal"
         id="path178" />
      <path
         d="m -11.2,-2.3914371 h 73.391 l -14.637,9.4655 h -73.391 z"
         style="fill:#d2d2d2;paint-order:normal"
         id="path180" />
      <path
         d="M -29.505,8.0206629 V 55.961495 h 9.980666 l 2.7876,8.934978 h 52.831737 l 3.587051,-9.132166 H 48.69 l 1.872975,-1.196418 1.278353,7.306295 12.221371,-7.926969 0.37018,-6.011522 1.266121,-0.808772 -1.2e-5,-46.42425813 -17.132,10.95299913 -75.318,0.07968"
         style="fill:none;stroke:#403e41;stroke-width:0.786874;stroke-dasharray:none"
         id="path182"
         sodipodi:nodetypes="ccccccccccccccc" />
      <circle
         cx="-26.653875"
         cy="11.738345"
         r="0.61418188"
         style="fill:#403e41;stroke-width:1.51541;paint-order:normal"
         id="circle184" />
      <path
         d="m 48.69,55.279751 0,-43.439389"
         style="fill:none;stroke:#403e41;stroke-width:0.786874;stroke-dasharray:2.3606, 2.3606;stroke-dashoffset:0"
         id="path188"
         sodipodi:nodetypes="cc" />
      <g
         id="g1084">
        <path
           id="path1665-3"
           style="fill:#ffffff;stroke:#403e41;stroke-width:0.786874;stroke-linecap:round"
           d="m 44.117077,57.131775 c -2.612776,0 -4.73085,2.118074 -4.73085,4.73085 0,2.612776 2.118074,4.73085 4.73085,4.73085 2.612776,0 4.73085,-2.118074 4.73085,-4.73085 0,-1.719649 -0.917522,-3.224999 -2.289725,-4.053212 l -2.420775,4.192905"
           sodipodi:nodetypes="csssc" />
        <circle
           style="fill:#ffffff;stroke:#403e41;stroke-width:0.786874;stroke-linejoin:round"
           id="path1080"
           cx="44.155003"
           cy="61.782166"
           r="1.0364949" />
      </g>
      <g
         id="g1108"
         transform="translate(-68.595872)">
        <path
           id="path1104"
           style="fill:#ffffff;stroke:#403e41;stroke-width:0.786874;stroke-linecap:round"
           d="m 44.117077,57.131775 c -2.612776,0 -4.73085,2.118074 -4.73085,4.73085 0,2.612776 2.118074,4.73085 4.73085,4.73085 2.612776,0 4.73085,-2.118074 4.73085,-4.73085 0,-1.719649 -0.917522,-3.224999 -2.289725,-4.053212 l -2.420775,4.192905"
           sodipodi:nodetypes="csssc" />
        <circle
           style="fill:#ffffff;stroke:#403e41;stroke-width:0.786874;stroke-linejoin:round"
           id="circle1106"
           cx="44.155003"
           cy="61.782166"
           r="1.0364949" />
      </g>
    </g>
  </g>
</svg>
