<svg width="51.003" height="151.51" version="1.1" viewBox="0 0 13.495 40.088" xmlns="http://www.w3.org/2000/svg">
 <defs>
  <clipPath id="clipPath14522">
   <rect x="164.78" y="105.72" width="13.23" height="37.952" ry="6.6149" fill="#5ca7f5" stroke="#403e41" stroke-linecap="round" stroke-linejoin="round" stroke-width=".26458" style="paint-order:normal"/>
  </clipPath>
 </defs>
 <g transform="translate(-229.3 -102.28)">
  <g transform="translate(64.657 -3.3127)">
   <rect x="164.78" y="105.72" width="13.23" height="37.952" ry="6.6149" fill="#fff" stroke="#403e41" stroke-linecap="round" stroke-linejoin="round" stroke-width=".26458" style="paint-order:normal"/>
   <path d="m165.51 98.342 32.224 32.2 0.18782-0.18782-32.226-32.198zm0 0 32.224 32.2 0.18782-0.18782-32.226-32.198zm-0.74854 0.74855 32.224 32.2 0.18782-0.18782-32.226-32.198zm-0.74854 0.74854 32.224 32.2 0.18783-0.18783-32.224-32.2zm-0.74854 0.74854 32.226 32.198 0.18644-0.18644-32.224-32.2zm-0.74853 0.74853 32.226 32.198 0.18645-0.18645-32.224-32.2zm-0.74716 0.74716 32.224 32.2 0.18645-0.18645-32.224-32.2zm-0.74855 0.74855 32.224 32.2 0.18782-0.18782-32.226-32.198zm-0.74853 0.74853 32.224 32.2 0.18783-0.18783-32.226-32.198zm-0.74854 0.74854 32.224 32.2 0.18783-0.18783-32.224-32.2zm-0.74854 0.74854 32.226 32.198 0.18644-0.18644-32.224-32.2zm-0.74854 0.74854 32.226 32.198 0.18644-0.18644-32.224-32.2zm-0.74715 0.74715 32.224 32.2 0.18645-0.18645-32.224-32.2zm-0.74855 0.74855 32.224 32.2 0.18783-0.18783-32.226-32.198zm-0.74853 0.74853 32.224 32.2 0.18782-0.18782-32.226-32.198zm-0.74855 0.74855 32.224 32.2 0.18783-0.18783-32.224-32.2zm-0.74853 0.74853 32.226 32.198 0.18644-0.18644-32.224-32.2zm-0.74854 0.74854 32.226 32.198 0.18644-0.18644-32.224-32.2zm-0.74716 0.74716 32.224 32.2 0.18645-0.18645-32.224-32.2zm-0.74854 0.74854 32.224 32.2 0.18782-0.18782-32.226-32.198zm-0.74854 0.74854 32.224 32.2 0.18782-0.18782-32.226-32.198zm-0.74853 0.74853 32.224 32.2 0.18783-0.18783-32.224-32.2zm-0.74855 0.74855 32.226 32.198 0.18645-0.18645-32.224-32.2zm-0.74853 0.74853 32.226 32.198 0.18644-0.18644-32.224-32.2zm-0.74716 0.74716 32.224 32.2 0.18644-0.18644-32.224-32.2zm-0.74854 0.74854 32.224 32.2 0.18783-0.18783-32.226-32.198zm-0.74854 0.74854 32.224 32.2 0.18782-0.18782-32.226-32.198zm-0.74853 0.74853 32.224 32.2 0.18783-0.18783-32.226-32.198zm-0.74855 0.74855 32.226 32.198 0.18645-0.18645-32.224-32.2zm-0.74853 0.74853 32.226 32.198 0.18645-0.18645-32.224-32.2z" clip-path="url(#clipPath14522)" color="#000000" fill="#5ca7f5" stroke="#5ca7f5" stroke-width=".1323"/>
   <rect x="164.78" y="105.72" width="13.23" height="37.952" ry="6.6149" fill="none" stroke="#403e41" stroke-linecap="round" stroke-linejoin="round" stroke-width=".26458" style="paint-order:normal"/>
  </g>
  <path d="m236.05 140.24c3.6647 0 6.4896-2.9503 6.4896-6.6149v-24.458c0-3.6647-2.825-6.6149-6.4896-6.6149z" fill="#197cd8" style="paint-order:normal"/>
  <path transform="matrix(.26458 0 0 .26458 229.3 102.28)" d="m25.242 14.158a1.521 1.521 0 0 0-1.5176 1.5215 1.521 1.521 0 0 0 0.91992 1.3965v31.652l-8.4863-14.697a1.521 1.521 0 0 0-0.11328-1.6484 1.521 1.521 0 0 0-1.2598-0.60937 1.521 1.521 0 0 0-0.86914 0.30273 1.521 1.521 0 0 0-0.30664 2.1289 1.521 1.521 0 0 0 1.5898 0.5625l9.3047 16.117a0.6 0.6 0 0 0 0.14062 0.16406v30.535l-8.4746-14.674a1.521 1.521 0 0 0 0.16211-1.5566 1.521 1.521 0 0 0-1.4199-0.87695 1.521 1.521 0 0 0-0.60156 0.14258 1.521 1.521 0 0 0-0.73438 2.0234 1.521 1.521 0 0 0 1.5566 0.86523l9.3711 16.232a0.6 0.6 0 0 0 0.14062 0.16406v28.574l-8.2656-14.314a1.521 1.521 0 0 0 0.38477-1.623 1.521 1.521 0 0 0-1.4414-1.002 1.521 1.521 0 0 0-0.50781 0.091797 1.521 1.521 0 0 0-0.91016 1.9473 1.521 1.521 0 0 0 1.3301 1l9.2695 16.057a0.6 0.6 0 0 0 0.14062 0.16406v36.117a0.6 0.6 0 0 0 0.59766 0.59765 0.6 0.6 0 0 0 0.60547-0.59765v-18.178a0.6 0.6 0 0 0 0.074219-0.09961l9.4941-16.443a1.521 1.521 0 0 0 1.6953-0.60547 1.521 1.521 0 0 0-0.40625-2.1113 1.521 1.521 0 0 0-0.88477-0.26172 1.521 1.521 0 0 0-1.2285 0.66797 1.521 1.521 0 0 0-0.10547 1.5215l-8.6387 14.953v-28.516a0.6 0.6 0 0 0 0.074219-0.09766l9.4434-16.357a1.521 1.521 0 0 0 1.8477-0.92773 1.521 1.521 0 0 0-0.89258-1.957 1.521 1.521 0 0 0-0.50976-0.097656 1.521 1.521 0 0 0-1.4473 0.99023 1.521 1.521 0 0 0 0.066407 1.2148l-8.582 14.855v-30.479a0.6 0.6 0 0 0 0.074219-0.099609l9.3301-16.158a1.521 1.521 0 0 0 1.5664-0.79492 1.521 1.521 0 0 0-0.63476-2.0566 1.521 1.521 0 0 0-0.69922-0.17578 1.521 1.521 0 0 0-1.3555 0.81055 1.521 1.521 0 0 0 0.10156 1.5859l-8.3828 14.51v-27.295a0.6 0.6 0 0 0 0.074219-0.10156l9.127-15.807a1.521 1.521 0 0 0 1.8047-1 1.521 1.521 0 0 0-0.9668-1.9199 1.521 1.521 0 0 0-0.51367-0.076172 1.521 1.521 0 0 0-1.4082 1.043 1.521 1.521 0 0 0 0.12109 1.2246l-8.2383 14.264v-19.865a1.521 1.521 0 0 0 0.91797-1.3965 1.521 1.521 0 0 0-1.5195-1.5215 1.521 1.521 0 0 0-0.003906 0z" color="#000000" color-rendering="auto" dominant-baseline="auto" fill="#403e41" image-rendering="auto" shape-rendering="auto" solid-color="#000000" stop-color="#000000" style="font-feature-settings:normal;font-variant-alternates:normal;font-variant-caps:normal;font-variant-east-asian:normal;font-variant-ligatures:normal;font-variant-numeric:normal;font-variant-position:normal;font-variation-settings:normal;inline-size:0;isolation:auto;mix-blend-mode:normal;shape-margin:0;shape-padding:0;text-decoration-color:#000000;text-decoration-line:none;text-decoration-style:solid;text-indent:0;text-orientation:mixed;text-transform:none;white-space:normal"/>
 </g>
</svg>
